100000.jpg
100001.jpg
100002.jpg
100100.jpg
100101.jpg
100200.jpg
100201.jpg
100300.jpg
100301.jpg
100302.jpg
100400.jpg
100401.jpg
100500.jpg
100501.jpg
100502.jpg
100503.jpg
100600.jpg
100601.jpg
100700.jpg
100701.jpg
100800.jpg
100801.jpg
100900.jpg
100901.jpg
100902.jpg
101000.jpg
101001.jpg
101100.jpg
101101.jpg
101200.jpg
101201.jpg
101300.jpg
101301.jpg
101400.jpg
101401.jpg
101402.jpg
101403.jpg
101404.jpg
101500.jpg
101501.jpg
101502.jpg
101503.jpg
101504.jpg
101600.jpg
101601.jpg
101700.jpg
101701.jpg
101702.jpg
101800.jpg
101801.jpg
101900.jpg
101901.jpg
102000.jpg
102001.jpg
102100.jpg
102101.jpg
102200.jpg
102201.jpg
102202.jpg
102300.jpg
102301.jpg
102302.jpg
102303.jpg
102400.jpg
102401.jpg
102402.jpg
102500.jpg
102501.jpg
102600.jpg
102601.jpg
102700.jpg
102701.jpg
102800.jpg
102801.jpg
102802.jpg
102900.jpg
102901.jpg
103000.jpg
103001.jpg
103002.jpg
103100.jpg
103101.jpg
103102.jpg
103200.jpg
103201.jpg
103202.jpg
103203.jpg
103204.jpg
103300.jpg
103301.jpg
103302.jpg
103303.jpg
103304.jpg
103400.jpg
103401.jpg
103500.jpg
103501.jpg
103502.jpg
103503.jpg
103600.jpg
103601.jpg
103700.jpg
103701.jpg
103702.jpg
103800.jpg
103801.jpg
103900.jpg
103901.jpg
103902.jpg
104000.jpg
104001.jpg
104002.jpg
104003.jpg
104004.jpg
104005.jpg
104006.jpg
104100.jpg
104101.jpg
104200.jpg
104201.jpg
104202.jpg
104203.jpg
104300.jpg
104301.jpg
104400.jpg
104401.jpg
104402.jpg
104500.jpg
104501.jpg
104502.jpg
104600.jpg
104601.jpg
104700.jpg
104701.jpg
104800.jpg
104801.jpg
104802.jpg
104900.jpg
104901.jpg
104902.jpg
105000.jpg
105001.jpg
105002.jpg
105100.jpg
105101.jpg
105102.jpg
105103.jpg
105104.jpg
105200.jpg
105201.jpg
105300.jpg
105301.jpg
105400.jpg
105401.jpg
105500.jpg
105501.jpg
105600.jpg
105601.jpg
105700.jpg
105701.jpg
105800.jpg
105801.jpg
105802.jpg
105900.jpg
105901.jpg
106000.jpg
106001.jpg
106002.jpg
106100.jpg
106101.jpg
106200.jpg
106201.jpg
106202.jpg
106300.jpg
106301.jpg
106400.jpg
106401.jpg
106402.jpg
106403.jpg
106500.jpg
106501.jpg
106600.jpg
106601.jpg
106602.jpg
106603.jpg
106604.jpg
106605.jpg
106606.jpg
106700.jpg
106701.jpg
106702.jpg
106703.jpg
106704.jpg
106800.jpg
106801.jpg
106900.jpg
106901.jpg
106902.jpg
106903.jpg
107000.jpg
107001.jpg
107100.jpg
107101.jpg
107200.jpg
107201.jpg
107202.jpg
107203.jpg
107300.jpg
107301.jpg
107400.jpg
107401.jpg
107500.jpg
107501.jpg
107600.jpg
107601.jpg
107700.jpg
107701.jpg
107702.jpg
107800.jpg
107801.jpg
107900.jpg
107901.jpg
107902.jpg
108000.jpg
108001.jpg
108100.jpg
108101.jpg
108102.jpg
108103.jpg
108104.jpg
108105.jpg
108106.jpg
108200.jpg
108201.jpg
108202.jpg
108203.jpg
108300.jpg
108301.jpg
108400.jpg
108401.jpg
108500.jpg
108501.jpg
108600.jpg
108601.jpg
108700.jpg
108701.jpg
108800.jpg
108801.jpg
108802.jpg
108900.jpg
108901.jpg
108902.jpg
109000.jpg
109001.jpg
109100.jpg
109101.jpg
109200.jpg
109201.jpg
109300.jpg
109301.jpg
109400.jpg
109401.jpg
109402.jpg
109500.jpg
109501.jpg
109600.jpg
109601.jpg
109700.jpg
109701.jpg
109800.jpg
109801.jpg
109802.jpg
109900.jpg
109901.jpg
110000.jpg
110001.jpg
110100.jpg
110101.jpg
110200.jpg
110201.jpg
110300.jpg
110301.jpg
110302.jpg
110400.jpg
110401.jpg
110500.jpg
110501.jpg
110600.jpg
110601.jpg
110700.jpg
110701.jpg
110702.jpg
110800.jpg
110801.jpg
110802.jpg
110900.jpg
110901.jpg
111000.jpg
111001.jpg
111002.jpg
111100.jpg
111101.jpg
111200.jpg
111201.jpg
111300.jpg
111301.jpg
111400.jpg
111401.jpg
111500.jpg
111501.jpg
111600.jpg
111601.jpg
111700.jpg
111701.jpg
111702.jpg
111703.jpg
111800.jpg
111801.jpg
111900.jpg
111901.jpg
112000.jpg
112001.jpg
112002.jpg
112003.jpg
112100.jpg
112101.jpg
112200.jpg
112201.jpg
112300.jpg
112301.jpg
112302.jpg
112400.jpg
112401.jpg
112402.jpg
112403.jpg
112404.jpg
112405.jpg
112406.jpg
112407.jpg
112408.jpg
112500.jpg
112501.jpg
112600.jpg
112601.jpg
112602.jpg
112700.jpg
112701.jpg
112800.jpg
112801.jpg
112900.jpg
112901.jpg
112902.jpg
113000.jpg
113001.jpg
113100.jpg
113101.jpg
113200.jpg
113201.jpg
113300.jpg
113301.jpg
113400.jpg
113401.jpg
113402.jpg
113403.jpg
113404.jpg
113500.jpg
113501.jpg
113502.jpg
113600.jpg
113601.jpg
113700.jpg
113701.jpg
113800.jpg
113801.jpg
113900.jpg
113901.jpg
114000.jpg
114001.jpg
114002.jpg
114100.jpg
114101.jpg
114200.jpg
114201.jpg
114300.jpg
114301.jpg
114400.jpg
114401.jpg
114402.jpg
114500.jpg
114501.jpg
114502.jpg
114503.jpg
114504.jpg
114600.jpg
114601.jpg
114700.jpg
114701.jpg
114702.jpg
114703.jpg
114800.jpg
114801.jpg
114900.jpg
114901.jpg
114902.jpg
114903.jpg
115000.jpg
115001.jpg
115100.jpg
115101.jpg
115200.jpg
115201.jpg
115300.jpg
115301.jpg
115400.jpg
115401.jpg
115500.jpg
115501.jpg
115600.jpg
115601.jpg
115602.jpg
115700.jpg
115701.jpg
115702.jpg
115800.jpg
115801.jpg
115900.jpg
115901.jpg
115902.jpg
116000.jpg
116001.jpg
116002.jpg
116100.jpg
116101.jpg
116200.jpg
116201.jpg
116300.jpg
116301.jpg
116400.jpg
116401.jpg
116402.jpg
116500.jpg
116501.jpg
116600.jpg
116601.jpg
116700.jpg
116701.jpg
116702.jpg
116703.jpg
116800.jpg
116801.jpg
116802.jpg
116803.jpg
116900.jpg
116901.jpg
117000.jpg
117001.jpg
117100.jpg
117101.jpg
117102.jpg
117200.jpg
117201.jpg
117300.jpg
117301.jpg
117302.jpg
117400.jpg
117401.jpg
117402.jpg
117403.jpg
117500.jpg
117501.jpg
117600.jpg
117601.jpg
117700.jpg
117701.jpg
117800.jpg
117801.jpg
117802.jpg
117900.jpg
117901.jpg
118000.jpg
118001.jpg
118002.jpg
118003.jpg
118100.jpg
118101.jpg
118200.jpg
118201.jpg
118202.jpg
118300.jpg
118301.jpg
118302.jpg
118303.jpg
118400.jpg
118401.jpg
118402.jpg
118500.jpg
118501.jpg
118600.jpg
118601.jpg
118700.jpg
118701.jpg
118800.jpg
118801.jpg
118802.jpg
118803.jpg
118900.jpg
118901.jpg
119000.jpg
119001.jpg
119100.jpg
119101.jpg
119200.jpg
119201.jpg
119202.jpg
119203.jpg
119300.jpg
119301.jpg
119400.jpg
119401.jpg
119500.jpg
119501.jpg
119600.jpg
119601.jpg
119602.jpg
119603.jpg
119604.jpg
119605.jpg
119700.jpg
119701.jpg
119702.jpg
119703.jpg
119704.jpg
119800.jpg
119801.jpg
119900.jpg
119901.jpg
120000.jpg
120001.jpg
120100.jpg
120101.jpg
120200.jpg
120201.jpg
120300.jpg
120301.jpg
120400.jpg
120401.jpg
120500.jpg
120501.jpg
120600.jpg
120601.jpg
120700.jpg
120701.jpg
120702.jpg
120703.jpg
120800.jpg
120801.jpg
120900.jpg
120901.jpg
121000.jpg
121001.jpg
121100.jpg
121101.jpg
121200.jpg
121201.jpg
121300.jpg
121301.jpg
121400.jpg
121401.jpg
121402.jpg
121403.jpg
121404.jpg
121500.jpg
121501.jpg
121600.jpg
121601.jpg
121700.jpg
121701.jpg
121800.jpg
121801.jpg
121900.jpg
121901.jpg
122000.jpg
122001.jpg
122002.jpg
122100.jpg
122101.jpg
122102.jpg
122200.jpg
122201.jpg
122202.jpg
122203.jpg
122300.jpg
122301.jpg
122302.jpg
122400.jpg
122401.jpg
122402.jpg
122500.jpg
122501.jpg
122502.jpg
122503.jpg
122504.jpg
122600.jpg
122601.jpg
122602.jpg
122700.jpg
122701.jpg
122702.jpg
122703.jpg
122704.jpg
122705.jpg
122706.jpg
122707.jpg
122708.jpg
122709.jpg
122800.jpg
122801.jpg
122900.jpg
122901.jpg
123000.jpg
123001.jpg
123002.jpg
123003.jpg
123100.jpg
123101.jpg
123200.jpg
123201.jpg
123202.jpg
123203.jpg
123204.jpg
123205.jpg
123300.jpg
123301.jpg
123400.jpg
123401.jpg
123402.jpg
123403.jpg
123404.jpg
123500.jpg
123501.jpg
123600.jpg
123601.jpg
123602.jpg
123700.jpg
123701.jpg
123800.jpg
123801.jpg
123900.jpg
123901.jpg
124000.jpg
124001.jpg
124002.jpg
124003.jpg
124100.jpg
124101.jpg
124200.jpg
124201.jpg
124202.jpg
124300.jpg
124301.jpg
124302.jpg
124400.jpg
124401.jpg
124402.jpg
124500.jpg
124501.jpg
124600.jpg
124601.jpg
124700.jpg
124701.jpg
124800.jpg
124801.jpg
124802.jpg
124900.jpg
124901.jpg
125000.jpg
125001.jpg
125100.jpg
125101.jpg
125102.jpg
125200.jpg
125201.jpg
125202.jpg
125203.jpg
125300.jpg
125301.jpg
125400.jpg
125401.jpg
125500.jpg
125501.jpg
125600.jpg
125601.jpg
125700.jpg
125701.jpg
125702.jpg
125703.jpg
125800.jpg
125801.jpg
125802.jpg
125900.jpg
125901.jpg
126000.jpg
126001.jpg
126002.jpg
126100.jpg
126101.jpg
126102.jpg
126200.jpg
126201.jpg
126202.jpg
126300.jpg
126301.jpg
126400.jpg
126401.jpg
126402.jpg
126500.jpg
126501.jpg
126502.jpg
126600.jpg
126601.jpg
126700.jpg
126701.jpg
126702.jpg
126703.jpg
126704.jpg
126705.jpg
126800.jpg
126801.jpg
126802.jpg
126803.jpg
126804.jpg
126805.jpg
126806.jpg
126807.jpg
126808.jpg
126900.jpg
126901.jpg
126902.jpg
127000.jpg
127001.jpg
127100.jpg
127101.jpg
127200.jpg
127201.jpg
127202.jpg
127300.jpg
127301.jpg
127400.jpg
127401.jpg
127402.jpg
127403.jpg
127500.jpg
127501.jpg
127502.jpg
127503.jpg
127600.jpg
127601.jpg
127602.jpg
127700.jpg
127701.jpg
127800.jpg
127801.jpg
127802.jpg
127900.jpg
127901.jpg
128000.jpg
128001.jpg
128002.jpg
128100.jpg
128101.jpg
128200.jpg
128201.jpg
128300.jpg
128301.jpg
128400.jpg
128401.jpg
128500.jpg
128501.jpg
128502.jpg
128600.jpg
128601.jpg
128700.jpg
128701.jpg
128800.jpg
128801.jpg
128900.jpg
128901.jpg
129000.jpg
129001.jpg
129002.jpg
129003.jpg
129100.jpg
129101.jpg
129200.jpg
129201.jpg
129202.jpg
129300.jpg
129301.jpg
129400.jpg
129401.jpg
129500.jpg
129501.jpg
129600.jpg
129601.jpg
129602.jpg
129700.jpg
129701.jpg
129800.jpg
129801.jpg
129802.jpg
129900.jpg
129901.jpg
